^D:\USERS\ALLE\DESKTOP\EKAKH-FVKLOCKA\TIMER.CPP
D:\USERS\ALLE\DESKTOP\EKAKH-FVKLOCKA\VISUAL MICRO\.EKAKH-FVKLOCKA.VSARDUINO.H
C:\PROGRAM FILES (X86)\ARDUINO\HARDWARE\ARDUINO\SAM\CORES\ARDUINO\ARDUINO.H
^D:\USERS\ALLE\DESKTOP\EKAKH-FVKLOCKA\LIQUIDCRYSTAL.CPP
D:\USERS\ALLE\DESKTOP\EKAKH-FVKLOCKA\VISUAL MICRO\.EKAKH-FVKLOCKA.VSARDUINO.H
C:\PROGRAM FILES (X86)\ARDUINO\HARDWARE\ARDUINO\SAM\CORES\ARDUINO\ARDUINO.H
^D:\USERS\ALLE\DESKTOP\EKAKH-FVKLOCKA\TILLMAT.CPP
D:\USERS\ALLE\DESKTOP\EKAKH-FVKLOCKA\VISUAL MICRO\.EKAKH-FVKLOCKA.VSARDUINO.H
C:\PROGRAM FILES (X86)\ARDUINO\HARDWARE\ARDUINO\SAM\CORES\ARDUINO\ARDUINO.H
^D:\USERS\ALLE\DESKTOP\EKAKH-FVKLOCKA\STATEMACHINE.CPP
D:\USERS\ALLE\DESKTOP\EKAKH-FVKLOCKA\VISUAL MICRO\.EKAKH-FVKLOCKA.VSARDUINO.H
C:\PROGRAM FILES (X86)\ARDUINO\HARDWARE\ARDUINO\SAM\CORES\ARDUINO\ARDUINO.H
^D:\USERS\ALLE\DESKTOP\EKAKH-FVKLOCKA\PERIODICTIMER.CPP
D:\USERS\ALLE\DESKTOP\EKAKH-FVKLOCKA\VISUAL MICRO\.EKAKH-FVKLOCKA.VSARDUINO.H
C:\PROGRAM FILES (X86)\ARDUINO\HARDWARE\ARDUINO\SAM\CORES\ARDUINO\ARDUINO.H
^D:\USERS\ALLE\DESKTOP\EKAKH-FVKLOCKA\LEDCONTROL.CPP
D:\USERS\ALLE\DESKTOP\EKAKH-FVKLOCKA\VISUAL MICRO\.EKAKH-FVKLOCKA.VSARDUINO.H
C:\PROGRAM FILES (X86)\ARDUINO\HARDWARE\ARDUINO\SAM\CORES\ARDUINO\ARDUINO.H
^D:\USERS\ALLE\DESKTOP\EKAKH-FVKLOCKA\INTROSTATE.CPP
D:\USERS\ALLE\DESKTOP\EKAKH-FVKLOCKA\VISUAL MICRO\.EKAKH-FVKLOCKA.VSARDUINO.H
C:\PROGRAM FILES (X86)\ARDUINO\HARDWARE\ARDUINO\SAM\CORES\ARDUINO\ARDUINO.H
^D:\USERS\ALLE\DESKTOP\EKAKH-FVKLOCKA\HARDWAREMANAGER.CPP
D:\USERS\ALLE\DESKTOP\EKAKH-FVKLOCKA\VISUAL MICRO\.EKAKH-FVKLOCKA.VSARDUINO.H
C:\PROGRAM FILES (X86)\ARDUINO\HARDWARE\ARDUINO\SAM\CORES\ARDUINO\ARDUINO.H
^D:\USERS\ALLE\DESKTOP\EKAKH-FVKLOCKA\CLOCKSTATE.CPP
D:\USERS\ALLE\DESKTOP\EKAKH-FVKLOCKA\VISUAL MICRO\.EKAKH-FVKLOCKA.VSARDUINO.H
C:\PROGRAM FILES (X86)\ARDUINO\HARDWARE\ARDUINO\SAM\CORES\ARDUINO\ARDUINO.H
^D:\USERS\ALLE\DESKTOP\EKAKH-FVKLOCKA\CLOCKMANAGER.CPP
D:\USERS\ALLE\DESKTOP\EKAKH-FVKLOCKA\VISUAL MICRO\.EKAKH-FVKLOCKA.VSARDUINO.H
C:\PROGRAM FILES (X86)\ARDUINO\HARDWARE\ARDUINO\SAM\CORES\ARDUINO\ARDUINO.H
^D:\USERS\ALLE\DESKTOP\EKAKH-FVKLOCKA\CLOCK.CPP
D:\USERS\ALLE\DESKTOP\EKAKH-FVKLOCKA\VISUAL MICRO\.EKAKH-FVKLOCKA.VSARDUINO.H
C:\PROGRAM FILES (X86)\ARDUINO\HARDWARE\ARDUINO\SAM\CORES\ARDUINO\ARDUINO.H
^D:\USERS\ALLE\DESKTOP\EKAKH-FVKLOCKA\CHANNELLCDPRINTER.CPP
D:\USERS\ALLE\DESKTOP\EKAKH-FVKLOCKA\VISUAL MICRO\.EKAKH-FVKLOCKA.VSARDUINO.H
C:\PROGRAM FILES (X86)\ARDUINO\HARDWARE\ARDUINO\SAM\CORES\ARDUINO\ARDUINO.H
^D:\USERS\ALLE\DESKTOP\EKAKH-FVKLOCKA\CHANNEL.CPP
D:\USERS\ALLE\DESKTOP\EKAKH-FVKLOCKA\VISUAL MICRO\.EKAKH-FVKLOCKA.VSARDUINO.H
C:\PROGRAM FILES (X86)\ARDUINO\HARDWARE\ARDUINO\SAM\CORES\ARDUINO\ARDUINO.H
^D:\USERS\ALLE\DESKTOP\EKAKH-FVKLOCKA\BUTTON.CPP
D:\USERS\ALLE\DESKTOP\EKAKH-FVKLOCKA\VISUAL MICRO\.EKAKH-FVKLOCKA.VSARDUINO.H
C:\PROGRAM FILES (X86)\ARDUINO\HARDWARE\ARDUINO\SAM\CORES\ARDUINO\ARDUINO.H
^D:\USERS\ALLE\DESKTOP\EKAKH-FVKLOCKA\BASESTATE.CPP
D:\USERS\ALLE\DESKTOP\EKAKH-FVKLOCKA\VISUAL MICRO\.EKAKH-FVKLOCKA.VSARDUINO.H
C:\PROGRAM FILES (X86)\ARDUINO\HARDWARE\ARDUINO\SAM\CORES\ARDUINO\ARDUINO.H
^D:\USERS\ALLE\DESKTOP\EKAKH-FVKLOCKA\GLOBALS.CPP
D:\PROGRAM FILES (X86)\MICROSOFT VISUAL STUDIO 12.0\VC\BIN\1033\CLUI.DLL
C:\WINDOWS\GLOBALIZATION\SORTING\SORTDEFAULT.NLS
C:\WINDOWS\SYSTEM32\RSAENH.DLL
D:\PROGRAM FILES (X86)\MICROSOFT VISUAL STUDIO 12.0\VC\BIN\MSPDBSRV.EXE
C:\WINDOWS\SYSTEM32\TZRES.DLL
D:\USERS\ALLE\DESKTOP\EKAKH-FVKLOCKA\VISUAL MICRO\.EKAKH-FVKLOCKA.VSARDUINO.H
C:\PROGRAM FILES (X86)\ARDUINO\HARDWARE\ARDUINO\SAM\CORES\ARDUINO\ARDUINO.H
